…
yhat <- predict(logpclass, test, type = "raw")
phat <- exp(yhat)/(1 + exp(yhat))
test <- test %>%
  bind_cols(yhat = yhat, phat = phat)

logpclassaug <- augment(logpclass$fit) %>%
  mutate(prob = exp(.fitted)/(1+exp(.fitted)))
logpclassaug

## # A tibble: 891 x 9
##    Survived Pclass .fitted .resid .std.resid    .hat .sigma  .cooksd  prob
##    <fct>     <dbl>   <dbl>  <dbl>      <dbl>   <dbl>  <dbl>    <dbl> <dbl>
##  1 0             3  -1.10  -0.757     -0.758 0.00185   1.10 0.000308 0.249
##  2 1             1   0.597  0.937      0.938 0.00385   1.10 0.00107  0.645
##  3 1             3  -1.10   1.67       1.67  0.00185   1.10 0.00280  0.249
##  4 1             1   0.597  0.937      0.938 0.00385   1.10 0.00107  0.645
##  5 0             3  -1.10  -0.757     -0.758 0.00185   1.10 0.000308 0.249
##  6 0             3  -1.10  -0.757     -0.758 0.00185   1.10 0.000308 0.249
##  7 0             1   0.597 -1.44      -1.44  0.00385   1.10 0.00352  0.645
##  8 0             3  -1.10  -0.757     -0.758 0.00185   1.10 0.000308 0.249
##  9 1             3  -1.10   1.67       1.67  0.00185   1.10 0.00280  0.249
## 10 1             2  -0.253  1.29       1.29  0.00142   1.10 0.000914 0.437
## # ... with 881 more rows
…
