…
# Pros and cons of Bootstrapping (2)
In bootstrapping, random sampling with replacement is used in a way that each data point is represented in a proportion of 0.623. One pro of bootstrapping is that it takes samples in a way that it can better reflect the variability of a population from the sample data then other models. Another pro is that bootstrapping is overall more accurate than simple standard intervals, and can better represent data that is not completely normal.
Some cons of bootstrapping are that it heavily relies on the data in the sample in order to predict values/variance of the population, which may give the data scientist a false sense of security about their model. It can also be relatively time consuming. It is particularly weak as a model if the sample size is too small or the distribution of the population does not have finite moments.
# Uploading the data in your GitHub account and directly access in your solution file (2)

library(readr)
library(readxl)

real_estate <- read_excel("/Users/cfish/Downloads/Real_estate_data.xlsx")
real_estate

## # A tibble: 414 x 8
##       No `X1 transaction date` `X2 house age` `X3 distance to~` `X4 number of ~`
##    <dbl>                 <dbl>          <dbl>             <dbl>            <dbl>
##  1     1                 2013.           32                84.9               10
##  2     2                 2013.           19.5             307.                 9
##  3     3                 2014.           13.3             562.                 5
##  4     4                 2014.           13.3             562.                 5
##  5     5                 2013.            5               391.                 5
##  6     6                 2013.            7.1            2175.                 3
##  7     7                 2013.           34.5             623.                 7
##  8     8                 2013.           20.3             288.                 6
##  9     9                 2014.           31.7            5512.                 1
## 10    10                 2013.           17.9            1783.                 3
## # ... with 404 more rows, and 3 more variables: `X5 latitude` <dbl>,
## #   `X6 longitude` <dbl>, `Y house price of unit area` <dbl>
…
